{
    "current_page": 1,
    "total_pages": 1000,
    "total_items": 134722,
    "photos": [
        {
            "id": 82867411,
            "user_id": 155927,
            "name": "Giant hornet stare you!",
            "description": "Giant hornet stare you!\n\nHorrible insect king :)\n\nNIKON D7100\nSIGMA macro 150mm F2.8",
            "camera": null,
            "lens": null,
            "focal_length": null,
            "iso": null,
            "shutter_speed": null,
            "aperture": null,
            "times_viewed": 16,
            "rating": 59,
            "status": 1,
            "created_at": "2014-09-10T22:16:26-04:00",
            "category": 12,
            "location": null,
            "latitude": null,
            "longitude": null,
            "taken_at": null,
            "hi_res_uploaded": 0,
            "for_sale": false,
            "width": 720,
            "height": 684,
            "votes_count": 4,
            "favorites_count": 2,
            "comments_count": 0,
            "nsfw": false,
            "sales_count": 0,
            "for_sale_date": null,
            "highest_rating": 59,
            "highest_rating_date": "2014-09-10T22:20:38-04:00",
            "license_type": 0,
            "converted": 27,
            "collections_count": 0,
            "crop_version": 7,
            "privacy": false,
            "image_url": "https://gp1.wac.edgecastcdn.net/806614/photos/photos.500px.net/82867411/5d7d3c93dbc58424539b3d63db88090bb1ee8718/2.jpg?v=7",
            "images": [
                {
                    "size": 2,
                    "url": "http://ppcdn.500px.org/82867411/5d7d3c93dbc58424539b3d63db88090bb1ee8718/2.jpg?v=7",
                    "https_url": "https://gp1.wac.edgecastcdn.net/806614/photos/photos.500px.net/82867411/5d7d3c93dbc58424539b3d63db88090bb1ee8718/2.jpg?v=7",
                    "format": "jpeg"
                }
            ],
            "url": "/photo/82867411/giant-hornet-stare-you!-by-darkfoto",
            "positive_votes_count": 4,
            "converted_bits": 27,
            "share_counts": {},
            "image_format": "jpeg",
            "user": {
                "id": 155927,
                "username": "darkfoto",
                "firstname": "",
                "lastname": "",
                "city": "",
                "country": "",
                "usertype": 0,
                "fullname": "darkfoto",
                "userpic_url": "http://pacdn.500px.org/155927/582c4a2c2d567b61346017924f9496ab621438e0/1.jpg?2",
                "userpic_https_url": "https://gp1.wac.edgecastcdn.net/806614/avatars/avatars.500px.net/155927/582c4a2c2d567b61346017924f9496ab621438e0/1.jpg?2",
                "upgrade_status": 1,
                "affection": 3025,
                "followers_count": 73
            }
        }
    ]
}